<svg xmlns="http://www.w3.org/2000/svg" width="25" height="24" viewBox="0 0 25 24">
  <defs>
    <style>
      .cls-1 {
        fill: none;
        stroke: #fff;
        stroke-width: 2px;
        fill-rule: evenodd;
      }
    </style>
  </defs>
  <path id="star.svg" class="cls-1" d="M252,32l-5.926,5.7,1.511,7.9-7.1-3.7L233.372,46l1.539-7.983L229,32.655l8.051-1.237L240.516,24l3.437,7.219Z" transform="translate(-228 -23)"/>
</svg>
